<?xml version="1.0" standalone="no"?>
<!DOCTYPE svg PUBLIC "-//W3C//DTD SVG 1.1//EN" "http://www.w3.org/Graphics/SVG/1.1/DTD/svg11.dtd" >
<svg xmlns="http://www.w3.org/2000/svg">
<metadata>Generated by IcoMoon</metadata>
<defs>
<font id="iconfont" horiz-adv-x="1024">
<font-face units-per-em="1024" ascent="960" descent="-64" />
<missing-glyph horiz-adv-x="1024" />
<glyph unicode="&#x20;" horiz-adv-x="512" d="" />
<glyph unicode="&#x3c;" glyph-name="left" horiz-adv-x="1675" d="M1602.259 526.306h-1349.271l313.224 313.224c12.047 12.047 24.094 36.141 24.094 48.188 0 36.141-36.141 72.282-72.282 72.282-24.094 0-48.188-12.047-60.235-24.094l-433.694-433.694c-12.047-12.047-24.094-36.141-24.094-60.235s12.047-36.141 24.094-48.188l433.694-433.694c12.047-12.047 36.141-24.094 48.188-24.094 36.141 0 72.282 36.141 72.282 72.282 0 24.094-12.047 36.141-24.094 48.188l-301.176 313.224h1361.318c36.141 0 72.282 36.141 72.282 72.282-12.047 48.188-36.141 84.329-84.329 84.329z" />
<glyph unicode="&#x3e;" glyph-name="right" horiz-adv-x="1675" d="M1662.494 502.212l-433.694 433.694c-24.094 12.047-36.141 24.094-60.235 24.094-48.188 0-72.282-36.141-72.282-72.282 0-24.094 12.047-36.141 24.094-48.188l313.224-313.224h-1361.318c-36.141 0-72.282-36.141-72.282-84.329 0-36.141 36.141-72.282 72.282-72.282h1361.318l-313.224-313.224c-24.094-12.047-24.094-24.094-24.094-48.188 0-36.141 36.141-72.282 72.282-72.282 24.094 0 36.141 12.047 48.188 24.094l433.694 433.694c12.047 12.047 24.094 36.141 24.094 48.188 0 24.094 0 48.188-12.047 60.235z" />
<glyph unicode="&#x43;" glyph-name="calendar" d="M859.429 850.286v109.714h-36.571v-109.714h-621.714v109.714h-36.571v-109.714h-164.571v-914.286h1024v914.286h-164.571zM987.429-27.429h-950.857v731.429h950.857v-731.429zM987.429 740.571h-950.857v73.143h128v-36.571h36.571v36.571h621.714v-36.571h36.571v36.571h128v-73.143zM914.286 411.429h-146.286v-146.286h146.286v146.286zM877.714 301.714h-73.143v73.143h73.143v-73.143zM914.286 630.857h-146.286v-146.286h146.286v146.286zM877.714 521.143h-73.143v73.143h73.143v-73.143zM475.429 630.857h-146.286v-146.286h146.286v146.286zM438.857 521.143h-73.143v73.143h73.143v-73.143zM475.429 192h-146.286v-146.286h146.286v146.286zM438.857 82.286h-73.143v73.143h73.143v-73.143zM475.429 411.429h-146.286v-146.286h146.286v146.286zM438.857 301.714h-73.143v73.143h73.143v-73.143zM256 192h-146.286v-146.286h146.286v146.286zM219.429 82.286h-73.143v73.143h73.143v-73.143zM694.857 192h-146.286v-146.286h146.286v146.286zM658.286 82.286h-73.143v73.143h73.143v-73.143zM694.857 411.429h-146.286v-146.286h146.286v146.286zM658.286 301.714h-73.143v73.143h73.143v-73.143zM694.857 630.857h-146.286v-146.286h146.286v146.286zM658.286 521.143h-73.143v73.143h73.143v-73.143zM256 411.429h-146.286v-146.286h146.286v146.286zM219.429 301.714h-73.143v73.143h73.143v-73.143z" />
<glyph unicode="&#x5e;" glyph-name="close-arrow" horiz-adv-x="1759" d="M879.428 719.227l466.162-467.439-75.335-75.123-390.827 391.892-390.613-391.894-75.439 75.123z" />
<glyph unicode="&#x61;" glyph-name="account" d="M512 960c-281.369 0-512-230.631-512-512s230.631-512 512-512c281.369 0 512 230.631 512 512s-230.631 512-512 512zM839.495 115.892c-73.802 73.802-170.667 106.090-189.117 110.703-55.351 46.126-32.288 96.865 9.225 166.054 4.613 9.225 13.838 23.063 18.45 32.288 27.676 59.964 23.063 96.865 18.45 110.703 9.225 41.514 23.063 156.829-36.901 221.405-36.901 36.901-87.64 50.739-152.216 32.288-69.189 0-119.928-23.063-152.216-64.577-55.351-73.802-27.676-179.892-18.45-207.568-13.838-50.739 13.838-87.64 23.063-96.865s87.64-124.541 18.45-193.73l-23.063-9.225c-78.414-32.288-129.153-59.964-170.667-96.865-87.64 83.027-138.378 198.342-138.378 327.495 0 258.306 207.568 465.874 465.874 465.874s465.874-207.568 465.874-465.874c0-129.153-55.351-244.468-138.378-332.108z" />
<glyph unicode="&#x64;" glyph-name="idp" d="M870.4-64h-716.8c-87.040 0-153.6 66.56-153.6 153.6v716.8c0 87.040 66.56 153.6 153.6 153.6h716.8c87.040 0 153.6-66.56 153.6-153.6v-716.8c0-87.040-66.56-153.6-153.6-153.6zM153.6 898.56c-51.2 0-92.16-40.96-92.16-92.16v-716.8c0-51.2 40.96-92.16 92.16-92.16h716.8c51.2 0 92.16 40.96 92.16 92.16v716.8c0 51.2-40.96 92.16-92.16 92.16h-716.8zM138.24 627.2h81.92v-373.76h-81.92v373.76zM476.16 289.28v0c-20.48-30.72-46.080-40.96-81.92-40.96-81.92 0-122.88 71.68-122.88 143.36s40.96 138.24 117.76 138.24c30.72 0 61.44-15.36 81.92-40.96v0 138.24h71.68v-373.76h-66.56v35.84zM409.6 478.72c-46.080 0-66.56-40.96-66.56-87.040 0-40.96 20.48-87.040 66.56-87.040 51.2 0 61.44 40.96 61.44 87.040 5.12 46.080-10.24 87.040-61.44 87.040zM609.28 627.2h168.96c92.16 0 128-56.32 128-117.76s-35.84-117.76-128-117.76h-87.040v-133.12h-81.92v368.64zM691.2 453.12h61.44c35.84 0 71.68 10.24 71.68 56.32s-35.84 56.32-71.68 56.32h-61.44v-112.64z" />
<glyph unicode="&#x67;" glyph-name="cog" d="M514.473 628.56c-98.937 0-183.034-84.097-183.034-183.034s84.097-183.034 183.034-183.034 183.034 84.097 183.034 183.034c0 103.884-84.097 183.034-183.034 183.034zM514.473 302.068c-79.15 0-148.406 64.309-148.406 148.406 0 79.15 64.309 148.406 148.406 148.406s148.406-64.309 148.406-148.406c-4.947-84.097-69.256-148.406-148.406-148.406zM1014.106 519.729v0l-133.565 39.575c-9.894 24.734-19.787 49.469-29.681 74.203l64.309 118.725c4.947 4.947 4.947 14.841-4.947 19.787l-79.15 79.15c-4.947 4.947-14.841 4.947-19.787 4.947v0l-118.725-64.309c-24.734 14.841-44.522 24.734-74.203 29.681l-39.575 133.565c0 9.894-9.894 14.841-14.841 14.841h-103.884c-9.894-9.894-14.841-14.841-19.787-24.734v0l-39.575-128.618c-19.787-9.894-44.522-19.787-64.309-29.681l-123.671 64.309c-4.947 4.947-14.841 4.947-24.734 0l-79.15-79.15c-4.947-9.894-4.947-19.787 0-24.734v0l64.309-123.671c-9.894-19.787-19.787-39.575-29.681-64.309l-128.618-39.575c-9.894 0-14.841-4.947-14.841-14.841v-113.778c0-9.894 4.947-14.841 14.841-19.787v0l133.565-39.575c4.947-24.734 14.841-44.522 24.734-64.309l-64.309-123.671c-4.947-4.947-4.947-14.841 4.947-19.787l79.15-79.15c4.947-4.947 14.841-4.947 19.787-4.947v0l123.671 64.309c19.787-9.894 44.522-19.787 64.309-29.681l39.575-133.565c0-9.894 9.894-14.841 19.787-14.841h113.778c9.894 0 14.841 4.947 19.787 14.841v0l39.575 133.565c24.734 9.894 44.522 19.787 69.256 29.681l118.725-64.309c4.947-4.947 14.841-4.947 19.787 4.947l79.15 79.15c4.947 4.947 4.947 14.841 4.947 19.787v0l-64.309 118.725c9.894 24.734 24.734 44.522 29.681 74.203l133.565 39.575c9.894 0 14.841 9.894 14.841 14.841v108.831c-14.841 9.894-19.787 14.841-24.734 19.787zM989.372 405.952l-138.512-39.575c-9.894-34.628-24.734-69.256-44.522-103.884l69.256-123.671-59.362-59.362-123.671 69.256c-29.681-19.787-64.309-34.628-98.937-39.575l-39.575-138.512h-84.097l-39.575 138.512c-34.628 9.894-69.256 24.734-98.937 39.575l-128.618-69.256-54.415 59.362 69.256 128.618c-19.787 29.681-29.681 64.309-39.575 93.99l-138.512 39.575v89.043l138.512 39.575c4.947 34.628 19.787 69.256 39.575 98.937l-69.256 123.671 59.362 59.362 128.618-69.256c24.734 19.787 59.362 34.628 93.99 44.522l39.575 138.512h84.097l39.575-138.512c34.628-9.894 69.256-24.734 103.884-44.522l123.671 69.256 59.362-59.362-69.256-123.671c14.841-29.681 29.681-64.309 39.575-98.937l138.512-39.575v-84.097z" />
<glyph unicode="&#x68;" glyph-name="help" d="M512-64c-282.347 0-512 229.653-512 512s229.653 512 512 512c282.347 0 512-229.653 512-512s-229.653-512-512-512zM512 904.649c-251.793 0-456.649-204.855-456.649-456.649s204.855-456.649 456.649-456.649c251.793 0 456.649 204.855 456.649 456.649s-204.855 456.649-456.649 456.649zM445.412 360.766v24.022c0 11.015 1.162 21.034 3.432 30s5.757 17.491 10.406 25.628 10.572 15.941 17.934 23.635 16.218 15.609 26.569 23.856c9.078 7.14 16.771 13.506 23.026 19.096s11.347 11.181 15.222 16.716 6.698 11.292 8.413 17.325 2.546 13.063 2.546 21.089c0 12.343-4.151 22.473-12.454 30.499s-20.923 12.011-38.026 12.011c-14.945 0-30.997-3.155-48.156-9.41s-34.982-13.949-53.359-23.026l-33.1 71.68c9.299 5.424 19.428 10.517 30.333 15.388s22.251 9.188 34.041 12.952 23.746 6.753 35.812 8.912 24.022 3.266 35.702 3.266c22.030 0 41.956-2.657 59.669-7.971s32.768-13.008 45.056-23.192 21.864-22.473 28.451-36.975 9.853-31.052 9.853-49.595c0-13.616-1.494-25.794-4.539-36.477s-7.472-20.646-13.395-29.834-13.395-18.045-22.362-26.569-19.484-17.546-31.329-27.067c-9.078-7.14-16.439-13.34-22.196-18.653s-10.24-10.351-13.506-15.111-5.48-9.686-6.642-14.779-1.771-11.070-1.771-17.989v-19.484h-85.629zM434.674 249.842c0 10.185 1.439 18.764 4.373 25.794s6.974 12.675 12.177 17.048 11.292 7.472 18.321 9.41 14.557 2.934 22.528 2.934c7.583 0 14.779-0.996 21.587-2.934s12.786-5.092 17.989-9.41 9.299-10.019 12.343-17.048 4.539-15.609 4.539-25.794c0-9.742-1.494-18.045-4.539-24.963s-7.14-12.675-12.343-17.214-11.181-7.805-17.989-9.853-14.004-3.1-21.587-3.1c-8.026 0-15.498 1.052-22.528 3.1s-13.118 5.369-18.321 9.908-9.244 10.295-12.177 17.214-4.373 15.166-4.373 24.908z" />
<glyph unicode="&#x70;" glyph-name="sp" d="M870.4-64h-716.8c-87.040 0-153.6 66.56-153.6 153.6v716.8c0 87.040 66.56 153.6 153.6 153.6h716.8c87.040 0 153.6-66.56 153.6-153.6v-716.8c0-81.92-71.68-153.6-153.6-153.6zM153.6 898.56c-51.2 0-92.16-40.96-92.16-92.16v-716.8c0-51.2 40.96-92.16 92.16-92.16h716.8c51.2 0 92.16 40.96 92.16 92.16v716.8c0 51.2-40.96 92.16-92.16 92.16h-716.8zM271.36 401.92c0-51.2 40.96-66.56 81.92-66.56 30.72 0 71.68 10.24 71.68 46.080 0 40.96-56.32 46.080-112.64 61.44-51.2 15.36-107.52 35.84-107.52 102.4 0 76.8 71.68 112.64 138.24 112.64 76.8 0 148.48-35.84 148.48-117.76h-76.8c-5.12 46.080-35.84 56.32-76.8 56.32-25.6 0-56.32-10.24-56.32-40.96s15.36-30.72 112.64-56.32c25.6-5.12 112.64-25.6 112.64-107.52 0-66.56-51.2-117.76-153.6-117.76-81.92 0-158.72 40.96-158.72 133.12h76.8zM552.96 652.8h168.96c92.16 0 128-56.32 128-117.76s-35.84-117.76-128-117.76h-87.040v-133.12h-81.92v368.64zM634.88 478.72h61.44c35.84 0 71.68 10.24 71.68 56.32s-35.84 56.32-71.68 56.32h-61.44v-112.64z" />
<glyph unicode="&#x73;" glyph-name="server" horiz-adv-x="1078" d="M538.947-64c-296.421 0-538.947 231.747-538.947 512s242.526 512 538.947 512 538.947-231.747 538.947-512c0-280.253-242.526-512-538.947-512zM538.947 900.716c-264.084 0-474.274-204.8-474.274-452.716s215.579-452.716 474.274-452.716 474.274 204.8 474.274 452.716-210.189 452.716-474.274 452.716zM722.189 739.032h-377.263l-156.295-404.211 26.947-161.684h630.568l26.947 161.684-150.905 404.211zM808.421 210.863h-560.505l-10.779 80.842h582.063l-10.779-80.842z" />
<glyph unicode="&#x76;" glyph-name="dropdown-arrow" horiz-adv-x="1759" d="M879.572 176.773l-466.162 467.439 75.335 75.123 390.827-391.892 390.613 391.894 75.439-75.123z" />
<glyph unicode="&#x78;" glyph-name="close" d="M509.944-64c-279.647 0-509.944 230.297-509.944 514.056s230.297 509.944 509.944 509.944 509.944-230.297 509.944-509.944-226.185-514.056-509.944-514.056zM509.944 918.876c-259.084 0-468.819-209.735-468.819-468.819s209.735-468.819 468.819-468.819c259.084 0 468.819 209.735 468.819 468.819 4.112 259.084-205.622 468.819-468.819 468.819zM293.639 697.978l465.266-465.266-29.079-29.079-465.266 465.266 29.079 29.079zM729.826 697.978l29.079-29.079-465.266-465.266-29.079 29.079 465.266 465.266z" />
<glyph unicode="&#x79;" glyph-name="check" horiz-adv-x="1353" d="M0 396.33l507.303-460.33 845.505 798.532-234.862 225.468-629.431-629.431-272.44 272.44z" />
<glyph unicode="&#x7b;" glyph-name="Previous" horiz-adv-x="782" d="M735.418-64c-18.618 0-27.927 9.309-37.236 18.618l-307.2 493.382 307.2 493.382c9.309 18.618 46.545 27.927 65.164 18.618s27.927-46.545 18.618-65.164l-269.964-437.527 269.964-437.527c9.309-18.618 9.309-46.545-18.618-65.164-9.309-18.618-18.618-18.618-27.927-18.618zM344.436-64c-18.618 0-27.927 9.309-37.236 18.618l-307.2 493.382 307.2 493.382c9.309 18.618 46.545 27.927 65.164 18.618s27.927-46.545 18.618-65.164l-269.964-437.527 269.964-437.527c9.309-18.618 9.309-46.545-18.618-65.164-9.309-18.618-18.618-18.618-27.927-18.618z" />
<glyph unicode="&#x7d;" glyph-name="next" horiz-adv-x="809" d="M487.619-73.752l-78.019 58.514 282.819 458.362-282.819 458.362 78.019 58.514 321.829-516.876zM78.019-73.752l-78.019 58.514 282.819 458.362-282.819 458.362 78.019 58.514 321.829-516.876z" />
<glyph unicode="&#xe900;" glyph-name="as" d="M115.068 947.332c-49.089-13.196-91.843-55.423-104.511-103.984-3.695-13.196-5.278-157.823-4.223-406.961 1.584-367.373 2.111-387.959 11.612-405.377 19.002-35.365 40.643-57.534 70.73-72.313l30.087-14.779h786.474l26.92 14.252c29.559 15.835 53.839 40.643 71.786 74.425l12.14 22.169v395.876c0 377.93-0.528 396.932-10.029 414.351-19.002 35.365-40.643 57.534-70.73 72.313l-30.087 14.779-382.68 1.056c-297.171 1.056-387.959-0.528-407.489-5.806zM905.237 885.047c21.641-11.612 37.476-29.559 47.505-52.784 6.862-17.419 7.918-67.035 7.918-385.32 0-343.621-1.056-366.845-10.029-386.903-10.557-24.28-36.421-48.033-57.534-54.367-18.474-4.751-743.72-4.751-762.194 0-21.113 6.334-46.977 30.087-57.534 54.367-8.973 20.058-10.029 43.282-10.029 387.959s1.056 367.901 10.029 387.959c11.085 24.808 36.948 48.561 57.534 53.311 7.918 1.584 16.891 3.695 19.53 4.751 3.167 1.056 170.491 1.584 372.124 1.056 330.425-1.056 368.429-2.111 382.68-10.029zM685.658 648.577c-70.73-12.14-109.262-61.229-97.649-124.041 5.806-31.142 40.643-61.229 93.427-81.287 24.28-9.501 50.672-19.53 58.062-22.169 37.476-14.779 48.033-47.505 22.169-68.091-12.668-10.029-20.058-11.085-48.561-9.501-28.503 2.111-35.365 4.223-45.922 16.891-6.862 7.918-12.668 20.058-12.668 27.447 0 12.14-1.056 12.668-39.588 12.668h-39.588v-14.252c0.528-40.643 39.588-85.509 86.565-99.233 31.142-9.501 84.454-10.029 116.124-2.111 28.503 6.862 60.173 32.726 69.674 55.423 17.946 42.755 1.584 96.594-36.421 122.986-12.14 8.445-44.338 23.225-71.786 32.726-26.92 10.029-54.895 23.225-61.757 29.559-27.975 25.864-5.278 61.757 39.588 61.757 31.67 0 52.784-12.668 57.006-33.781 2.639-15.835 3.167-15.835 41.699-15.835 36.948 0 39.060 0.528 39.060 12.14-0.528 17.419-17.946 52.256-34.837 68.091-29.031 26.92-83.926 39.588-134.598 30.614zM259.167 473.336c-35.893-96.594-66.507-178.936-67.563-182.103-2.111-5.278 7.918-6.862 39.588-6.862h42.755l11.612 36.948 12.14 37.476 126.153-3.167 23.225-68.619 86.037-3.167-7.918 20.058c-4.223 11.085-34.837 92.371-68.091 181.047l-60.173 160.99-72.313 3.167-65.452-175.769zM399.043 431.109c2.639-8.445-1.056-9.501-36.948-9.501-22.169 0-40.115 1.584-40.115 3.695 0 2.639 8.445 30.087 19.53 62.285l19.002 58.062 17.946-52.784c9.501-28.503 18.474-56.478 20.586-61.757z" />
</font></defs></svg>